MLP/AccRegister.vcd
$date
     Jun 10, 2023       18:18:48
$end

$version
 SystemC 2.3.1-Accellera --- Jun  9 2023 22:37:42
$end

$timescale
     1 ps
$end

$scope module SystemC $end
$var wire    1  aaaaa  Clock       $end
$var wire    1  aaaab  Reset       $end
$var wire    1  aaaac  Load       $end
$var wire    1  aaaad  INIT       $end
$var wire    8  aaaae  Bias_In [7:0]  $end
$var wire    8  aaaaf  INPUT [7:0]  $end
$var wire    8  aaaag  OUTPUT [7:0]  $end
$upscope $end
$enddefinitions  $end

$comment
All initial values are dumped below at time 0 sec = 0 timescale units.
$end

$dumpvars
xaaaaa
1aaaab
0aaaac
0aaaad
b1100 aaaae
bXXXXXXXX aaaaf
b0 aaaag
$end

#10000
0aaaaa
0aaaab

#20000
1aaaaa
1aaaad
b1100 aaaag

#30000
0aaaaa
0aaaad

#40000
1aaaaa

#50000
0aaaaa

#60000
1aaaaa

#70000
0aaaaa

#80000
1aaaaa
b100100 aaaaf

#90000
0aaaaa

#100000
1aaaaa

#110000
0aaaaa

#117000
1aaaac

#120000
1aaaaa
b100100 aaaag

#127000
0aaaac
b11100100 aaaaf

#130000
0aaaaa

#140000
1aaaaa

#150000
0aaaaa

#160000
1aaaaa

#170000
0aaaaa

#180000
1aaaaa

#187000
1aaaac

#190000
0aaaaa

#200000
1aaaaa
b11100100 aaaag

#207000
0aaaac

