MLP/AddressCounterTest.vcd
$date
     Jun 10, 2023       17:43:27
$end

$version
 SystemC 2.3.1-Accellera --- Jun  9 2023 22:37:42
$end

$timescale
     1 ps
$end

$scope module SystemC $end
$var wire    1  aaaaa  Clock       $end
$var wire    1  aaaab  Reset       $end
$var wire    1  aaaac  INIT       $end
$var wire    1  aaaad  INC       $end
$var wire    1  aaaae  Done       $end
$var wire    4  aaaaf  OUTPUT [3:0]  $end
$upscope $end
$enddefinitions  $end

$comment
All initial values are dumped below at time 0 sec = 0 timescale units.
$end

$dumpvars
xaaaaa
1aaaab
0aaaac
0aaaad
0aaaae
bXXXX aaaaf
$end

#10000
0aaaaa
0aaaab

#20000
1aaaaa
1aaaad
b1 aaaaf

#30000
0aaaaa
0aaaad

#40000
1aaaaa
1aaaad
b10 aaaaf

#50000
0aaaaa
0aaaad

#60000
1aaaaa
1aaaad
b11 aaaaf

#70000
0aaaaa
0aaaad

#80000
1aaaaa
1aaaad
1aaaae
b100 aaaaf

#90000
0aaaaa
0aaaad

