MLP/ControllerTest.vcd
$date
     Jun 11, 2023       15:24:47
$end

$version
 SystemC 2.3.1-Accellera --- Jun  9 2023 22:37:42
$end

$timescale
     1 ps
$end

$scope module SystemC $end
$var wire    1  aaaaa  Clock       $end
$var wire    1  aaaab  Reset       $end
$var wire    1  aaaac  Start       $end
$var wire    1  aaaad  Done       $end
$var wire    1  aaaae  ReadRF       $end
$var wire    1  aaaaf  INC       $end
$var wire    1  aaaag  Load1       $end
$var wire    1  aaaah  Load2       $end
$var wire    1  aaaai  LoadRF       $end
$var wire    1  aaaaj  LoadACC       $end
$var wire    1  aaaak  INIT1       $end
$var wire    1  aaaal  INIT2       $end
$var wire    1  aaaam  INIT_C       $end
$var wire    1  aaaan  INIT_ACC       $end
$upscope $end
$enddefinitions  $end

$comment
All initial values are dumped below at time 0 sec = 0 timescale units.
$end

$dumpvars
xaaaaa
0aaaab
0aaaac
0aaaad
0aaaae
0aaaaf
0aaaag
0aaaah
0aaaai
0aaaaj
1aaaak
1aaaal
1aaaam
0aaaan
$end

#5000
0aaaaa

#10000
1aaaaa

#15000
0aaaaa

#20000
1aaaaa
1aaaab

#25000
0aaaaa

#30000
1aaaaa
0aaaab

#35000
0aaaaa

#40000
1aaaaa
1aaaac

#45000
0aaaaa

#50000
1aaaaa
0aaaac
0aaaak
0aaaal
0aaaam

#55000
0aaaaa

#60000
1aaaaa
1aaaai
1aaaan

#65000
0aaaaa

#70000
1aaaaa
1aaaae
1aaaag
1aaaah
0aaaai
0aaaan

#75000
0aaaaa

#80000
1aaaaa
0aaaae
1aaaaf
0aaaag
0aaaah
1aaaaj

#85000
0aaaaa

#90000
1aaaaa
0aaaaf
0aaaaj

#95000
0aaaaa

#100000
1aaaaa
1aaaae
1aaaag
1aaaah

#105000
0aaaaa

#110000
1aaaaa
0aaaae
1aaaaf
0aaaag
0aaaah
1aaaaj

#115000
0aaaaa

#120000
1aaaaa
0aaaaf
0aaaaj

#125000
0aaaaa

#130000
1aaaaa
1aaaae
1aaaag
1aaaah

#135000
0aaaaa

#140000
1aaaaa
0aaaae
1aaaaf
0aaaag
0aaaah
1aaaaj

#145000
0aaaaa

#150000
1aaaaa
0aaaaf
0aaaaj

#155000
0aaaaa

#160000
1aaaaa
1aaaae
1aaaag
1aaaah

#165000
0aaaaa

#170000
1aaaaa
0aaaae
1aaaaf
0aaaag
0aaaah
1aaaaj

#175000
0aaaaa

#180000
1aaaaa
0aaaaf
0aaaaj

#185000
0aaaaa

#190000
1aaaaa
1aaaae
1aaaag
1aaaah

#195000
0aaaaa

#200000
1aaaaa
0aaaae
1aaaaf
0aaaag
0aaaah
1aaaaj

#205000
0aaaaa

#210000
1aaaaa
0aaaaf
0aaaaj

#215000
0aaaaa

#220000
1aaaaa
1aaaae
1aaaag
1aaaah

#225000
0aaaaa

#230000
1aaaaa
0aaaae
1aaaaf
0aaaag
0aaaah
1aaaaj

#235000
0aaaaa

#240000
1aaaaa
0aaaaf
0aaaaj

#245000
0aaaaa

#250000
1aaaaa
1aaaae
1aaaag
1aaaah

#255000
0aaaaa

#260000
1aaaaa
0aaaae
1aaaaf
0aaaag
0aaaah
1aaaaj

#265000
0aaaaa

#270000
1aaaaa
0aaaaf
0aaaaj

#275000
0aaaaa

#280000
1aaaaa
1aaaae
1aaaag
1aaaah

#285000
0aaaaa

#290000
1aaaaa
0aaaae
1aaaaf
0aaaag
0aaaah
1aaaaj

#295000
0aaaaa

#300000
1aaaaa
0aaaaf
0aaaaj

#305000
0aaaaa

#310000
1aaaaa
1aaaae
1aaaag
1aaaah

#315000
0aaaaa

#320000
1aaaaa
0aaaae
1aaaaf
0aaaag
0aaaah
1aaaaj

#325000
0aaaaa

#330000
1aaaaa
0aaaaf
0aaaaj

#335000
0aaaaa

#340000
1aaaaa
1aaaae
1aaaag
1aaaah

#345000
0aaaaa

#350000
1aaaaa
0aaaae
1aaaaf
0aaaag
0aaaah
1aaaaj

#355000
0aaaaa

#360000
1aaaaa
0aaaaf
0aaaaj

#365000
0aaaaa

#370000
1aaaaa
1aaaae
1aaaag
1aaaah

#375000
0aaaaa

#380000
1aaaaa
0aaaae
1aaaaf
0aaaag
0aaaah
1aaaaj

#385000
0aaaaa

#390000
1aaaaa
0aaaaf
0aaaaj

#395000
0aaaaa

#400000
1aaaaa
1aaaae
1aaaag
1aaaah

#405000
0aaaaa

#410000
1aaaaa
0aaaae
1aaaaf
0aaaag
0aaaah
1aaaaj

#415000
0aaaaa

#420000
1aaaaa
0aaaaf
0aaaaj

#425000
0aaaaa

#430000
1aaaaa
1aaaae
1aaaag
1aaaah

#435000
0aaaaa

#440000
1aaaaa
0aaaae
1aaaaf
0aaaag
0aaaah
1aaaaj

#445000
0aaaaa

#450000
1aaaaa
0aaaaf
0aaaaj

#455000
0aaaaa

#460000
1aaaaa
1aaaae
1aaaag
1aaaah

#465000
0aaaaa

#470000
1aaaaa
0aaaae
1aaaaf
0aaaag
0aaaah
1aaaaj

#475000
0aaaaa

#480000
1aaaaa
0aaaaf
0aaaaj

#485000
0aaaaa

#490000
1aaaaa
1aaaae
1aaaag
1aaaah

#495000
0aaaaa

#500000
1aaaaa
0aaaae
1aaaaf
0aaaag
0aaaah
1aaaaj

#505000
0aaaaa

#510000
1aaaaa
0aaaaf
0aaaaj

#515000
0aaaaa

#520000
1aaaaa
1aaaae
1aaaag
1aaaah

#525000
0aaaaa

#530000
1aaaaa
0aaaae
1aaaaf
0aaaag
0aaaah
1aaaaj

#535000
0aaaaa

#540000
1aaaaa
0aaaaf
0aaaaj

#545000
0aaaaa

#550000
1aaaaa
1aaaae
1aaaag
1aaaah

#555000
0aaaaa

#560000
1aaaaa
0aaaae
1aaaaf
0aaaag
0aaaah
1aaaaj

#565000
0aaaaa

#570000
1aaaaa
0aaaaf
0aaaaj

#575000
0aaaaa

#580000
1aaaaa
1aaaae
1aaaag
1aaaah

#585000
0aaaaa

#590000
1aaaaa
0aaaae
1aaaaf
0aaaag
0aaaah
1aaaaj

#595000
0aaaaa

#600000
1aaaaa
0aaaaf
0aaaaj

#605000
0aaaaa

#610000
1aaaaa
1aaaae
1aaaag
1aaaah

#615000
0aaaaa

#620000
1aaaaa
0aaaae
1aaaaf
0aaaag
0aaaah
1aaaaj

#625000
0aaaaa

#630000
1aaaaa
0aaaaf
0aaaaj

#635000
0aaaaa

#640000
1aaaaa
1aaaae
1aaaag
1aaaah

#645000
0aaaaa

#650000
1aaaaa
0aaaae
1aaaaf
0aaaag
0aaaah
1aaaaj

#655000
0aaaaa

#660000
1aaaaa
0aaaaf
0aaaaj

#665000
0aaaaa

#670000
1aaaaa
1aaaae
1aaaag
1aaaah

#675000
0aaaaa

#680000
1aaaaa
0aaaae
1aaaaf
0aaaag
0aaaah
1aaaaj

#685000
0aaaaa

#690000
1aaaaa
0aaaaf
0aaaaj

#695000
0aaaaa

#700000
1aaaaa
1aaaae
1aaaag
1aaaah

#705000
0aaaaa

#710000
1aaaaa
0aaaae
1aaaaf
0aaaag
0aaaah
1aaaaj

#715000
0aaaaa

#720000
1aaaaa
0aaaaf
0aaaaj

#725000
0aaaaa

#730000
1aaaaa
1aaaae
1aaaag
1aaaah

#735000
0aaaaa

#740000
1aaaaa
0aaaae
1aaaaf
0aaaag
0aaaah
1aaaaj

#745000
0aaaaa

#750000
1aaaaa
0aaaaf
0aaaaj

#755000
0aaaaa

#760000
1aaaaa
1aaaae
1aaaag
1aaaah

#765000
0aaaaa

#770000
1aaaaa
0aaaae
1aaaaf
0aaaag
0aaaah
1aaaaj

#775000
0aaaaa

#780000
1aaaaa
0aaaaf
0aaaaj

#785000
0aaaaa

#790000
1aaaaa
1aaaae
1aaaag
1aaaah

#795000
0aaaaa

#800000
1aaaaa
0aaaae
1aaaaf
0aaaag
0aaaah
1aaaaj

#805000
0aaaaa

#810000
1aaaaa
0aaaaf
0aaaaj

#815000
0aaaaa

#820000
1aaaaa
1aaaae
1aaaag
1aaaah

#825000
0aaaaa

#830000
1aaaaa
0aaaae
1aaaaf
0aaaag
0aaaah
1aaaaj

#835000
0aaaaa

#840000
1aaaaa
0aaaaf
0aaaaj

#845000
0aaaaa

#850000
1aaaaa
1aaaae
1aaaag
1aaaah

#855000
0aaaaa

#860000
1aaaaa
0aaaae
1aaaaf
0aaaag
0aaaah
1aaaaj

#865000
0aaaaa

#870000
1aaaaa
0aaaaf
0aaaaj

#875000
0aaaaa

#880000
1aaaaa
1aaaae
1aaaag
1aaaah

#885000
0aaaaa

#890000
1aaaaa
0aaaae
1aaaaf
0aaaag
0aaaah
1aaaaj

#895000
0aaaaa

#900000
1aaaaa
0aaaaf
0aaaaj

#905000
0aaaaa

#910000
1aaaaa
1aaaae
1aaaag
1aaaah

#915000
0aaaaa

#920000
1aaaaa
0aaaae
1aaaaf
0aaaag
0aaaah
1aaaaj

#925000
0aaaaa

#930000
1aaaaa
0aaaaf
0aaaaj

#935000
0aaaaa

#940000
1aaaaa
1aaaae
1aaaag
1aaaah

#945000
0aaaaa

#950000
1aaaaa
0aaaae
1aaaaf
0aaaag
0aaaah
1aaaaj

#955000
0aaaaa

#960000
1aaaaa
0aaaaf
0aaaaj

#965000
0aaaaa

#970000
1aaaaa
1aaaae
1aaaag
1aaaah

#975000
0aaaaa

#980000
1aaaaa
0aaaae
1aaaaf
0aaaag
0aaaah
1aaaaj

#985000
0aaaaa

#990000
1aaaaa
0aaaaf
0aaaaj

#995000
0aaaaa

#1000000
1aaaaa
1aaaae
1aaaag
1aaaah

#1005000
0aaaaa

#1010000
1aaaaa
0aaaae
1aaaaf
0aaaag
0aaaah
1aaaaj

#1015000
0aaaaa

#1020000
1aaaaa
0aaaaf
0aaaaj

#1025000
0aaaaa

#1030000
1aaaaa
1aaaae
1aaaag
1aaaah

#1035000
0aaaaa

#1040000
1aaaaa
0aaaae
1aaaaf
0aaaag
0aaaah
1aaaaj

#1045000
0aaaaa

#1050000
1aaaaa
1aaaad
0aaaaf
0aaaaj

#1055000
0aaaaa

#1060000
1aaaaa
0aaaad
1aaaak
1aaaal
1aaaam

