MLP/nBitCounterTest.vcd
$date
     Jun 28, 2023       21:15:54
$end

$version
 SystemC 2.3.1-Accellera --- Jun 12 2023 10:26:45
$end

$timescale
     1 ps
$end

$scope module SystemC $end
$var wire    1  aaaaa  Clock       $end
$var wire    1  aaaab  Reset       $end
$var wire    1  aaaac  INIT       $end
$var wire    1  aaaad  INC       $end
$var wire    8  aaaae  OUTPUT [7:0]  $end
$upscope $end
$enddefinitions  $end

$comment
All initial values are dumped below at time 0 sec = 0 timescale units.
$end

$dumpvars
xaaaaa
1aaaab
0aaaac
0aaaad
bXXXXXXXX aaaae
$end

#10000
0aaaaa
0aaaab

#20000
1aaaaa
1aaaad
b1 aaaae

#30000
0aaaaa
0aaaad

#40000
1aaaaa

#50000
0aaaaa

#60000
1aaaaa

#70000
0aaaaa
1aaaad

#80000
1aaaaa
1aaaac
b0 aaaae

#90000
0aaaaa
0aaaac

#100000
1aaaaa
b1 aaaae

#110000
0aaaaa

#120000
1aaaaa
b10 aaaae

#130000
0aaaaa

#140000
1aaaaa
b11 aaaae

#150000
0aaaaa

#160000
1aaaaa
b100 aaaae

#170000
0aaaaa

#180000
1aaaaa
b101 aaaae

#190000
0aaaaa

#200000
1aaaaa
b110 aaaae

#210000
0aaaaa

#220000
1aaaaa
b111 aaaae

#230000
0aaaaa

#240000
1aaaaa
b1000 aaaae

#250000
0aaaaa

#260000
1aaaaa
b1001 aaaae

#270000
0aaaaa

#280000
1aaaaa
b1010 aaaae

#290000
0aaaaa

#300000
1aaaaa
b1011 aaaae

#310000
0aaaaa

#320000
1aaaaa
b1100 aaaae

#330000
0aaaaa

#340000
1aaaaa
b1101 aaaae

#350000
0aaaaa

#360000
1aaaaa
b1110 aaaae

#370000
0aaaaa

#380000
1aaaaa
b1111 aaaae

#390000
0aaaaa

#400000
1aaaaa
b10000 aaaae

#410000
0aaaaa

#420000
1aaaaa
b10001 aaaae

#430000
0aaaaa

#440000
1aaaaa
b10010 aaaae

#450000
0aaaaa

#460000
1aaaaa
b10011 aaaae

#470000
0aaaaa

#480000
1aaaaa
b10100 aaaae

#490000
0aaaaa

#500000
1aaaaa
b10101 aaaae

#510000
0aaaaa

#520000
1aaaaa
b10110 aaaae

#530000
0aaaaa

#540000
1aaaaa
b10111 aaaae

#550000
0aaaaa

#560000
1aaaaa
b11000 aaaae

#570000
0aaaaa

#580000
1aaaaa
b11001 aaaae

#590000
0aaaaa

#600000
1aaaaa
b11010 aaaae

#610000
0aaaaa

#620000
1aaaaa
b11011 aaaae

#630000
0aaaaa

#640000
1aaaaa
b11100 aaaae

#650000
0aaaaa

#660000
1aaaaa
b11101 aaaae

#670000
0aaaaa

#680000
1aaaaa
b11110 aaaae

#690000
0aaaaa

#700000
1aaaaa
b11111 aaaae

#710000
0aaaaa

#720000
1aaaaa
b100000 aaaae

#730000
0aaaaa

#740000
1aaaaa
b100001 aaaae

#750000
0aaaaa

#760000
1aaaaa
b100010 aaaae

#770000
0aaaaa

#780000
1aaaaa
b100011 aaaae

#790000
0aaaaa

#800000
1aaaaa
b100100 aaaae

#810000
0aaaaa

#820000
1aaaaa
b100101 aaaae

#830000
0aaaaa

#840000
1aaaaa
b100110 aaaae

#850000
0aaaaa

#860000
1aaaaa
b100111 aaaae

#870000
0aaaaa

#880000
1aaaaa
b101000 aaaae

#890000
0aaaaa

#900000
1aaaaa
b101001 aaaae

#910000
0aaaaa

#920000
1aaaaa
b101010 aaaae

#930000
0aaaaa

#940000
1aaaaa
b101011 aaaae

#950000
0aaaaa

#960000
1aaaaa
b101100 aaaae

#970000
0aaaaa

#980000
1aaaaa
b101101 aaaae

#990000
0aaaaa

#1000000
1aaaaa
b101110 aaaae

#1010000
0aaaaa

#1020000
1aaaaa
b101111 aaaae

#1030000
0aaaaa

#1040000
1aaaaa
b110000 aaaae

#1050000
0aaaaa

#1060000
1aaaaa
b110001 aaaae

#1070000
0aaaaa

#1080000
1aaaaa
b110010 aaaae

#1090000
0aaaaa

#1100000
1aaaaa
b110011 aaaae

#1110000
0aaaaa

#1120000
1aaaaa
b110100 aaaae

#1130000
0aaaaa

#1140000
1aaaaa
b110101 aaaae

#1150000
0aaaaa

#1160000
1aaaaa
b110110 aaaae

#1170000
0aaaaa

#1180000
1aaaaa
b110111 aaaae

#1190000
0aaaaa

#1200000
1aaaaa
b111000 aaaae

#1210000
0aaaaa

#1220000
1aaaaa
b111001 aaaae

#1230000
0aaaaa

#1240000
1aaaaa
b111010 aaaae

#1250000
0aaaaa

#1260000
1aaaaa
b111011 aaaae

#1270000
0aaaaa

#1280000
1aaaaa
b111100 aaaae

#1290000
0aaaaa

#1300000
1aaaaa
b111101 aaaae

#1310000
0aaaaa

#1320000
1aaaaa
b111110 aaaae

#1330000
0aaaaa

#1340000
1aaaaa
b111111 aaaae

#1350000
0aaaaa

#1360000
1aaaaa
b1000000 aaaae

#1370000
0aaaaa

#1380000
1aaaaa
b1000001 aaaae

#1390000
0aaaaa

#1400000
1aaaaa
b1000010 aaaae

#1410000
0aaaaa

#1420000
1aaaaa
b1000011 aaaae

#1430000
0aaaaa

#1440000
1aaaaa
b1000100 aaaae

#1450000
0aaaaa

#1460000
1aaaaa
b1000101 aaaae

#1470000
0aaaaa

#1480000
1aaaaa
b1000110 aaaae

#1490000
0aaaaa

#1500000
1aaaaa
b1000111 aaaae

#1510000
0aaaaa

#1520000
1aaaaa
b1001000 aaaae

#1530000
0aaaaa

#1540000
1aaaaa
b1001001 aaaae

#1550000
0aaaaa

#1560000
1aaaaa
b1001010 aaaae

#1570000
0aaaaa

#1580000
1aaaaa
b1001011 aaaae

#1590000
0aaaaa

#1600000
1aaaaa
b1001100 aaaae

#1610000
0aaaaa

#1620000
1aaaaa
b1001101 aaaae

#1630000
0aaaaa

#1640000
1aaaaa
b1001110 aaaae

#1650000
0aaaaa

#1660000
1aaaaa
b1001111 aaaae

#1670000
0aaaaa

#1680000
1aaaaa
b1010000 aaaae

#1690000
0aaaaa

#1700000
1aaaaa
b1010001 aaaae

#1710000
0aaaaa

#1720000
1aaaaa
b1010010 aaaae

#1730000
0aaaaa

#1740000
1aaaaa
b1010011 aaaae

#1750000
0aaaaa

#1760000
1aaaaa
b1010100 aaaae

#1770000
0aaaaa

#1780000
1aaaaa
b1010101 aaaae

#1790000
0aaaaa

#1800000
1aaaaa
b1010110 aaaae

#1810000
0aaaaa

#1820000
1aaaaa
b1010111 aaaae

#1830000
0aaaaa

#1840000
1aaaaa
b1011000 aaaae

#1850000
0aaaaa

#1860000
1aaaaa
b1011001 aaaae

#1870000
0aaaaa

#1880000
1aaaaa
b1011010 aaaae

#1890000
0aaaaa

#1900000
1aaaaa
b1011011 aaaae

#1910000
0aaaaa

#1920000
1aaaaa
b1011100 aaaae

#1930000
0aaaaa

#1940000
1aaaaa
b1011101 aaaae

#1950000
0aaaaa

#1960000
1aaaaa
b1011110 aaaae

#1970000
0aaaaa

#1980000
1aaaaa
b1011111 aaaae

#1990000
0aaaaa

#2000000
1aaaaa
b1100000 aaaae

#2010000
0aaaaa

#2020000
1aaaaa
b1100001 aaaae

#2030000
0aaaaa

#2040000
1aaaaa
b1100010 aaaae

#2050000
0aaaaa

#2060000
1aaaaa
b1100011 aaaae

#2070000
0aaaaa

#2080000
1aaaaa
b1100100 aaaae

#2090000
0aaaaa

#2100000
1aaaaa
b1100101 aaaae

#2110000
0aaaaa

#2120000
1aaaaa
b1100110 aaaae

#2130000
0aaaaa

#2140000
1aaaaa
b1100111 aaaae

#2150000
0aaaaa

#2160000
1aaaaa
b1101000 aaaae

#2170000
0aaaaa

#2180000
1aaaaa
b1101001 aaaae

#2190000
0aaaaa

#2200000
1aaaaa
b1101010 aaaae

#2210000
0aaaaa

#2220000
1aaaaa
b1101011 aaaae

#2230000
0aaaaa

#2240000
1aaaaa
b1101100 aaaae

#2250000
0aaaaa

#2260000
1aaaaa
b1101101 aaaae

#2270000
0aaaaa

#2280000
1aaaaa
b1101110 aaaae

#2290000
0aaaaa

#2300000
1aaaaa
b1101111 aaaae

#2310000
0aaaaa

#2320000
1aaaaa
b1110000 aaaae

#2330000
0aaaaa

#2340000
1aaaaa
b1110001 aaaae

#2350000
0aaaaa

#2360000
1aaaaa
b1110010 aaaae

#2370000
0aaaaa

#2380000
1aaaaa
b1110011 aaaae

#2390000
0aaaaa

#2400000
1aaaaa
b1110100 aaaae

#2410000
0aaaaa

#2420000
1aaaaa
b1110101 aaaae

#2430000
0aaaaa

#2440000
1aaaaa
b1110110 aaaae

#2450000
0aaaaa

#2460000
1aaaaa
b1110111 aaaae

#2470000
0aaaaa

#2480000
1aaaaa
b1111000 aaaae

#2490000
0aaaaa

#2500000
1aaaaa
b1111001 aaaae

#2510000
0aaaaa

#2520000
1aaaaa
b1111010 aaaae

#2530000
0aaaaa

#2540000
1aaaaa
b1111011 aaaae

#2550000
0aaaaa

#2560000
1aaaaa
b1111100 aaaae

#2570000
0aaaaa

#2580000
1aaaaa
b1111101 aaaae

#2590000
0aaaaa

#2600000
1aaaaa
b1111110 aaaae

#2610000
0aaaaa

#2620000
1aaaaa
b1111111 aaaae

#2630000
0aaaaa

#2640000
1aaaaa
b10000000 aaaae

#2650000
0aaaaa

#2660000
1aaaaa
b10000001 aaaae

#2670000
0aaaaa

#2680000
1aaaaa
b10000010 aaaae

#2690000
0aaaaa

#2700000
1aaaaa
b10000011 aaaae

#2710000
0aaaaa

#2720000
1aaaaa
b10000100 aaaae

#2730000
0aaaaa

#2740000
1aaaaa
b10000101 aaaae

#2750000
0aaaaa

#2760000
1aaaaa
b10000110 aaaae

#2770000
0aaaaa

#2780000
1aaaaa
b10000111 aaaae

#2790000
0aaaaa

#2800000
1aaaaa
b10001000 aaaae

#2810000
0aaaaa

#2820000
1aaaaa
b10001001 aaaae

#2830000
0aaaaa

#2840000
1aaaaa
b10001010 aaaae

#2850000
0aaaaa

#2860000
1aaaaa
b10001011 aaaae

#2870000
0aaaaa

#2880000
1aaaaa
b10001100 aaaae

#2890000
0aaaaa

#2900000
1aaaaa
b10001101 aaaae

#2910000
0aaaaa

#2920000
1aaaaa
b10001110 aaaae

#2930000
0aaaaa

#2940000
1aaaaa
b10001111 aaaae

#2950000
0aaaaa

#2960000
1aaaaa
b10010000 aaaae

#2970000
0aaaaa

#2980000
1aaaaa
b10010001 aaaae

#2990000
0aaaaa

#3000000
1aaaaa
b10010010 aaaae

#3010000
0aaaaa

#3020000
1aaaaa
b10010011 aaaae

#3030000
0aaaaa

#3040000
1aaaaa
b10010100 aaaae

#3050000
0aaaaa

#3060000
1aaaaa
b10010101 aaaae

#3070000
0aaaaa

#3080000
1aaaaa
b10010110 aaaae

#3090000
0aaaaa

#3100000
1aaaaa
b10010111 aaaae

#3110000
0aaaaa

#3120000
1aaaaa
b10011000 aaaae

#3130000
0aaaaa

#3140000
1aaaaa
b10011001 aaaae

#3150000
0aaaaa

#3160000
1aaaaa
b10011010 aaaae

#3170000
0aaaaa

#3180000
1aaaaa
b10011011 aaaae

#3190000
0aaaaa

#3200000
1aaaaa
b10011100 aaaae

#3210000
0aaaaa

#3220000
1aaaaa
b10011101 aaaae

#3230000
0aaaaa

#3240000
1aaaaa
b10011110 aaaae

#3250000
0aaaaa

#3260000
1aaaaa
b10011111 aaaae

#3270000
0aaaaa

#3280000
1aaaaa
b10100000 aaaae

#3290000
0aaaaa

#3300000
1aaaaa
b10100001 aaaae

#3310000
0aaaaa

#3320000
1aaaaa
b10100010 aaaae

#3330000
0aaaaa

#3340000
1aaaaa
b10100011 aaaae

#3350000
0aaaaa

#3360000
1aaaaa
b10100100 aaaae

#3370000
0aaaaa

#3380000
1aaaaa
b10100101 aaaae

#3390000
0aaaaa

#3400000
1aaaaa
b10100110 aaaae

#3410000
0aaaaa

#3420000
1aaaaa
b10100111 aaaae

#3430000
0aaaaa

#3440000
1aaaaa
b10101000 aaaae

#3450000
0aaaaa

#3460000
1aaaaa
b10101001 aaaae

#3470000
0aaaaa

#3480000
1aaaaa
b10101010 aaaae

#3490000
0aaaaa

#3500000
1aaaaa
b10101011 aaaae

#3510000
0aaaaa

#3520000
1aaaaa
b10101100 aaaae

#3530000
0aaaaa

#3540000
1aaaaa
b10101101 aaaae

#3550000
0aaaaa

#3560000
1aaaaa
b10101110 aaaae

#3570000
0aaaaa

#3580000
1aaaaa
b10101111 aaaae

#3590000
0aaaaa

#3600000
1aaaaa
b10110000 aaaae

#3610000
0aaaaa

#3620000
1aaaaa
b10110001 aaaae

#3630000
0aaaaa

#3640000
1aaaaa
b10110010 aaaae

#3650000
0aaaaa

#3660000
1aaaaa
b10110011 aaaae

#3670000
0aaaaa

#3680000
1aaaaa
b10110100 aaaae

#3690000
0aaaaa

#3700000
1aaaaa
b10110101 aaaae

#3710000
0aaaaa

#3720000
1aaaaa
b10110110 aaaae

#3730000
0aaaaa

#3740000
1aaaaa
b10110111 aaaae

#3750000
0aaaaa

#3760000
1aaaaa
b10111000 aaaae

#3770000
0aaaaa

#3780000
1aaaaa
b10111001 aaaae

#3790000
0aaaaa

#3800000
1aaaaa
b10111010 aaaae

#3810000
0aaaaa

#3820000
1aaaaa
b10111011 aaaae

#3830000
0aaaaa

#3840000
1aaaaa
b10111100 aaaae

#3850000
0aaaaa

#3860000
1aaaaa
b10111101 aaaae

#3870000
0aaaaa

#3880000
1aaaaa
b10111110 aaaae

#3890000
0aaaaa

#3900000
1aaaaa
b10111111 aaaae

#3910000
0aaaaa

#3920000
1aaaaa
b11000000 aaaae

#3930000
0aaaaa

#3940000
1aaaaa
b11000001 aaaae

#3950000
0aaaaa

#3960000
1aaaaa
b11000010 aaaae

#3970000
0aaaaa

#3980000
1aaaaa
b11000011 aaaae

#3990000
0aaaaa

#4000000
1aaaaa
b11000100 aaaae

#4010000
0aaaaa

#4020000
1aaaaa
b11000101 aaaae

#4030000
0aaaaa

#4040000
1aaaaa
b11000110 aaaae

#4050000
0aaaaa

#4060000
1aaaaa
b11000111 aaaae

#4070000
0aaaaa

#4080000
1aaaaa
b11001000 aaaae

#4090000
0aaaaa

#4100000
1aaaaa
b11001001 aaaae

#4110000
0aaaaa

#4120000
1aaaaa
b11001010 aaaae

#4130000
0aaaaa

#4140000
1aaaaa
b11001011 aaaae

#4150000
0aaaaa

#4160000
1aaaaa
b11001100 aaaae

#4170000
0aaaaa

#4180000
1aaaaa
b11001101 aaaae

#4190000
0aaaaa

#4200000
1aaaaa
b11001110 aaaae

#4210000
0aaaaa

#4220000
1aaaaa
b11001111 aaaae

#4230000
0aaaaa

#4240000
1aaaaa
b11010000 aaaae

#4250000
0aaaaa

#4260000
1aaaaa
b11010001 aaaae

#4270000
0aaaaa

#4280000
1aaaaa
b11010010 aaaae

#4290000
0aaaaa

#4300000
1aaaaa
b11010011 aaaae

#4310000
0aaaaa

#4320000
1aaaaa
b11010100 aaaae

#4330000
0aaaaa

#4340000
1aaaaa
b11010101 aaaae

#4350000
0aaaaa

#4360000
1aaaaa
b11010110 aaaae

#4370000
0aaaaa

#4380000
1aaaaa
b11010111 aaaae

#4390000
0aaaaa

#4400000
1aaaaa
b11011000 aaaae

#4410000
0aaaaa

#4420000
1aaaaa
b11011001 aaaae

#4430000
0aaaaa

#4440000
1aaaaa
b11011010 aaaae

#4450000
0aaaaa

#4460000
1aaaaa
b11011011 aaaae

#4470000
0aaaaa

#4480000
1aaaaa
b11011100 aaaae

#4490000
0aaaaa

#4500000
1aaaaa
b11011101 aaaae

#4510000
0aaaaa

#4520000
1aaaaa
b11011110 aaaae

#4530000
0aaaaa

#4540000
1aaaaa
b11011111 aaaae

#4550000
0aaaaa

#4560000
1aaaaa
b11100000 aaaae

#4570000
0aaaaa

#4580000
1aaaaa
b11100001 aaaae

#4590000
0aaaaa

#4600000
1aaaaa
b11100010 aaaae

#4610000
0aaaaa

#4620000
1aaaaa
b11100011 aaaae

#4630000
0aaaaa

#4640000
1aaaaa
b11100100 aaaae

#4650000
0aaaaa

#4660000
1aaaaa
b11100101 aaaae

#4670000
0aaaaa

#4680000
1aaaaa
b11100110 aaaae

#4690000
0aaaaa

#4700000
1aaaaa
b11100111 aaaae

#4710000
0aaaaa

#4720000
1aaaaa
b11101000 aaaae

#4730000
0aaaaa

#4740000
1aaaaa
b11101001 aaaae

#4750000
0aaaaa

#4760000
1aaaaa
b11101010 aaaae

#4770000
0aaaaa

#4780000
1aaaaa
b11101011 aaaae

#4790000
0aaaaa

#4800000
1aaaaa
b11101100 aaaae

#4810000
0aaaaa

#4820000
1aaaaa
b11101101 aaaae

#4830000
0aaaaa

#4840000
1aaaaa
b11101110 aaaae

#4850000
0aaaaa

#4860000
1aaaaa
b11101111 aaaae

#4870000
0aaaaa

#4880000
1aaaaa
b11110000 aaaae

#4890000
0aaaaa

#4900000
1aaaaa
b11110001 aaaae

#4910000
0aaaaa

#4920000
1aaaaa
b11110010 aaaae

#4930000
0aaaaa

#4940000
1aaaaa
b11110011 aaaae

#4950000
0aaaaa

#4960000
1aaaaa
b11110100 aaaae

#4970000
0aaaaa

#4980000
1aaaaa
b11110101 aaaae

#4990000
0aaaaa

#5000000
1aaaaa
b11110110 aaaae

#5010000
0aaaaa

#5020000
1aaaaa
b11110111 aaaae

#5030000
0aaaaa

#5040000
1aaaaa
b11111000 aaaae

#5050000
0aaaaa

#5060000
1aaaaa
b11111001 aaaae

#5070000
0aaaaa

#5080000
1aaaaa
b11111010 aaaae

#5090000
0aaaaa

#5100000
1aaaaa
b11111011 aaaae

#5110000
0aaaaa

#5120000
1aaaaa
b11111100 aaaae

#5130000
0aaaaa

#5140000
1aaaaa
b11111101 aaaae

#5150000
0aaaaa

#5160000
1aaaaa
b11111110 aaaae

#5170000
0aaaaa

#5180000
1aaaaa
b11111111 aaaae

#5190000
0aaaaa

#5200000
1aaaaa
b0 aaaae

#5210000
0aaaaa

#5220000
1aaaaa
b1 aaaae

#5230000
0aaaaa

#5240000
1aaaaa
b10 aaaae

#5250000
0aaaaa

#5260000
1aaaaa
b11 aaaae

#5270000
0aaaaa

#5280000
1aaaaa
b100 aaaae

#5290000
0aaaaa

#5300000
1aaaaa
b101 aaaae

#5310000
0aaaaa

#5320000
1aaaaa
b110 aaaae

#5330000
0aaaaa

#5340000
1aaaaa
b111 aaaae

#5350000
0aaaaa

#5360000
1aaaaa
b1000 aaaae

#5370000
0aaaaa

#5380000
1aaaaa
b1001 aaaae

#5390000
0aaaaa

#5400000
1aaaaa
b1010 aaaae

#5410000
0aaaaa

#5420000
1aaaaa
b1011 aaaae

#5430000
0aaaaa

#5440000
1aaaaa
b1100 aaaae

#5450000
0aaaaa

#5460000
1aaaaa
b1101 aaaae

#5470000
0aaaaa

#5480000
1aaaaa
b1110 aaaae

#5490000
0aaaaa

#5500000
1aaaaa
b1111 aaaae

#5510000
0aaaaa

#5520000
1aaaaa
b10000 aaaae

#5530000
0aaaaa

#5540000
1aaaaa
b10001 aaaae

#5550000
0aaaaa

#5560000
1aaaaa
b10010 aaaae

#5570000
0aaaaa

#5580000
1aaaaa
b10011 aaaae

#5590000
0aaaaa

#5600000
1aaaaa
b10100 aaaae

#5610000
0aaaaa

#5620000
1aaaaa
b10101 aaaae

#5630000
0aaaaa

#5640000
1aaaaa
b10110 aaaae

#5650000
0aaaaa

#5660000
1aaaaa
b10111 aaaae

#5670000
0aaaaa

#5680000
1aaaaa
b11000 aaaae

#5690000
0aaaaa

#5700000
1aaaaa
b11001 aaaae

#5710000
0aaaaa

#5720000
1aaaaa
b11010 aaaae

#5730000
0aaaaa

#5740000
1aaaaa
b11011 aaaae

#5750000
0aaaaa

#5760000
1aaaaa
b11100 aaaae

#5770000
0aaaaa

#5780000
1aaaaa
b11101 aaaae

#5790000
0aaaaa

#5800000
1aaaaa
b11110 aaaae

#5810000
0aaaaa

#5820000
1aaaaa
b11111 aaaae

#5830000
0aaaaa

#5840000
1aaaaa
b100000 aaaae

#5850000
0aaaaa

#5860000
1aaaaa
b100001 aaaae

#5870000
0aaaaa

#5880000
1aaaaa
b100010 aaaae

#5890000
0aaaaa

#5900000
1aaaaa
b100011 aaaae

#5910000
0aaaaa

#5920000
1aaaaa
b100100 aaaae

#5930000
0aaaaa

#5940000
1aaaaa
b100101 aaaae

#5950000
0aaaaa

#5960000
1aaaaa
b100110 aaaae

#5970000
0aaaaa

#5980000
1aaaaa
b100111 aaaae

#5990000
0aaaaa

#6000000
1aaaaa
b101000 aaaae

#6010000
0aaaaa

#6020000
1aaaaa
b101001 aaaae

#6030000
0aaaaa

#6040000
1aaaaa
b101010 aaaae

#6050000
0aaaaa

#6060000
1aaaaa
b101011 aaaae

#6070000
0aaaaa

#6080000
1aaaaa
b101100 aaaae

#6090000
0aaaaa

#6100000
1aaaaa
b101101 aaaae

#6110000
0aaaaa

#6120000
1aaaaa
b101110 aaaae

#6130000
0aaaaa

#6140000
1aaaaa
b101111 aaaae

#6150000
0aaaaa

#6160000
1aaaaa
b110000 aaaae

#6170000
0aaaaa

#6180000
1aaaaa
b110001 aaaae

#6190000
0aaaaa

#6200000
1aaaaa
b110010 aaaae

#6210000
0aaaaa

#6220000
1aaaaa
b110011 aaaae

#6230000
0aaaaa

#6240000
1aaaaa
b110100 aaaae

#6250000
0aaaaa

#6260000
1aaaaa
b110101 aaaae

#6270000
0aaaaa

#6280000
1aaaaa
b110110 aaaae

#6290000
0aaaaa

#6300000
1aaaaa
b110111 aaaae

#6310000
0aaaaa

#6320000
1aaaaa
b111000 aaaae

#6330000
0aaaaa

#6340000
1aaaaa
b111001 aaaae

#6350000
0aaaaa

#6360000
1aaaaa
b111010 aaaae

#6370000
0aaaaa

#6380000
1aaaaa
b111011 aaaae

#6390000
0aaaaa

#6400000
1aaaaa
b111100 aaaae

#6410000
0aaaaa

#6420000
1aaaaa
b111101 aaaae

#6430000
0aaaaa

#6440000
1aaaaa
b111110 aaaae

#6450000
0aaaaa

#6460000
1aaaaa
b111111 aaaae

#6470000
0aaaaa

#6480000
1aaaaa
b1000000 aaaae

#6490000
0aaaaa

#6500000
1aaaaa
b1000001 aaaae

#6510000
0aaaaa

#6520000
1aaaaa
b1000010 aaaae

#6530000
0aaaaa

#6540000
1aaaaa
b1000011 aaaae

#6550000
0aaaaa

#6560000
1aaaaa
b1000100 aaaae

#6570000
0aaaaa

#6580000
1aaaaa
b1000101 aaaae

#6590000
0aaaaa

#6600000
1aaaaa
b1000110 aaaae

#6610000
0aaaaa

#6620000
1aaaaa
b1000111 aaaae

#6630000
0aaaaa

#6640000
1aaaaa
b1001000 aaaae

#6650000
0aaaaa

#6660000
1aaaaa
b1001001 aaaae

#6670000
0aaaaa

#6680000
1aaaaa
b1001010 aaaae

#6690000
0aaaaa

#6700000
1aaaaa
b1001011 aaaae

#6710000
0aaaaa

#6720000
1aaaaa
b1001100 aaaae

#6730000
0aaaaa

#6740000
1aaaaa
b1001101 aaaae

#6750000
0aaaaa

#6760000
1aaaaa
b1001110 aaaae

#6770000
0aaaaa

#6780000
1aaaaa
b1001111 aaaae

#6790000
0aaaaa

#6800000
1aaaaa
b1010000 aaaae

#6810000
0aaaaa

#6820000
1aaaaa
b1010001 aaaae

#6830000
0aaaaa

#6840000
1aaaaa
b1010010 aaaae

#6850000
0aaaaa

#6860000
1aaaaa
b1010011 aaaae

#6870000
0aaaaa

#6880000
1aaaaa
b1010100 aaaae

#6890000
0aaaaa

#6900000
1aaaaa
b1010101 aaaae

#6910000
0aaaaa

#6920000
1aaaaa
b1010110 aaaae

#6930000
0aaaaa

#6940000
1aaaaa
b1010111 aaaae

#6950000
0aaaaa

#6960000
1aaaaa
b1011000 aaaae

#6970000
0aaaaa

#6980000
1aaaaa
b1011001 aaaae

#6990000
0aaaaa

#7000000
1aaaaa
b1011010 aaaae

#7010000
0aaaaa

#7020000
1aaaaa
b1011011 aaaae

#7030000
0aaaaa

#7040000
1aaaaa
b1011100 aaaae

#7050000
0aaaaa

#7060000
1aaaaa
b1011101 aaaae

#7070000
0aaaaa

#7080000
1aaaaa
b1011110 aaaae

#7090000
0aaaaa

#7100000
1aaaaa
b1011111 aaaae

#7110000
0aaaaa

#7120000
1aaaaa
b1100000 aaaae

#7130000
0aaaaa

#7140000
1aaaaa
b1100001 aaaae

#7150000
0aaaaa

#7160000
1aaaaa
b1100010 aaaae

#7170000
0aaaaa

#7180000
1aaaaa
b1100011 aaaae

#7190000
0aaaaa

#7200000
1aaaaa
b1100100 aaaae

#7210000
0aaaaa

#7220000
1aaaaa
b1100101 aaaae

#7230000
0aaaaa

#7240000
1aaaaa
b1100110 aaaae

#7250000
0aaaaa

#7260000
1aaaaa
b1100111 aaaae

#7270000
0aaaaa

#7280000
1aaaaa
b1101000 aaaae

#7290000
0aaaaa

#7300000
1aaaaa
b1101001 aaaae

#7310000
0aaaaa

#7320000
1aaaaa
b1101010 aaaae

#7330000
0aaaaa

#7340000
1aaaaa
b1101011 aaaae

#7350000
0aaaaa

#7360000
1aaaaa
b1101100 aaaae

#7370000
0aaaaa

#7380000
1aaaaa
b1101101 aaaae

#7390000
0aaaaa

#7400000
1aaaaa
b1101110 aaaae

#7410000
0aaaaa

#7420000
1aaaaa
b1101111 aaaae

#7430000
0aaaaa

#7440000
1aaaaa
b1110000 aaaae

#7450000
0aaaaa

#7460000
1aaaaa
b1110001 aaaae

#7470000
0aaaaa

#7480000
1aaaaa
b1110010 aaaae

#7490000
0aaaaa

#7500000
1aaaaa
b1110011 aaaae

#7510000
0aaaaa

#7520000
1aaaaa
b1110100 aaaae

#7530000
0aaaaa

#7540000
1aaaaa
b1110101 aaaae

#7550000
0aaaaa

#7560000
1aaaaa
b1110110 aaaae

#7570000
0aaaaa

#7580000
1aaaaa
b1110111 aaaae

#7590000
0aaaaa

#7600000
1aaaaa
b1111000 aaaae

#7610000
0aaaaa

#7620000
1aaaaa
b1111001 aaaae

#7630000
0aaaaa

#7640000
1aaaaa
b1111010 aaaae

#7650000
0aaaaa

#7660000
1aaaaa
b1111011 aaaae

#7670000
0aaaaa

#7680000
1aaaaa
b1111100 aaaae

#7690000
0aaaaa

#7700000
1aaaaa
b1111101 aaaae

#7710000
0aaaaa

#7720000
1aaaaa
b1111110 aaaae

#7730000
0aaaaa

#7740000
1aaaaa
b1111111 aaaae

#7750000
0aaaaa

#7760000
1aaaaa
b10000000 aaaae

#7770000
0aaaaa

#7780000
1aaaaa
b10000001 aaaae

#7790000
0aaaaa

#7800000
1aaaaa
b10000010 aaaae

#7810000
0aaaaa

#7820000
1aaaaa
b10000011 aaaae

#7830000
0aaaaa

#7840000
1aaaaa
b10000100 aaaae

#7850000
0aaaaa

#7860000
1aaaaa
b10000101 aaaae

#7870000
0aaaaa

#7880000
1aaaaa
b10000110 aaaae

#7890000
0aaaaa

#7900000
1aaaaa
b10000111 aaaae

#7910000
0aaaaa

#7920000
1aaaaa
b10001000 aaaae

#7930000
0aaaaa

#7940000
1aaaaa
b10001001 aaaae

#7950000
0aaaaa

#7960000
1aaaaa
b10001010 aaaae

#7970000
0aaaaa

#7980000
1aaaaa
b10001011 aaaae

#7990000
0aaaaa

#8000000
1aaaaa
b10001100 aaaae

#8010000
0aaaaa

#8020000
1aaaaa
b10001101 aaaae

#8030000
0aaaaa

#8040000
1aaaaa
b10001110 aaaae

#8050000
0aaaaa

#8060000
1aaaaa
b10001111 aaaae

#8070000
0aaaaa

#8080000
1aaaaa
b10010000 aaaae

#8090000
0aaaaa

#8100000
1aaaaa
b10010001 aaaae

#8110000
0aaaaa

#8120000
1aaaaa
b10010010 aaaae

#8130000
0aaaaa

#8140000
1aaaaa
b10010011 aaaae

#8150000
0aaaaa

#8160000
1aaaaa
b10010100 aaaae

#8170000
0aaaaa

#8180000
1aaaaa
b10010101 aaaae

#8190000
0aaaaa

#8200000
1aaaaa
b10010110 aaaae

#8210000
0aaaaa

#8220000
1aaaaa
b10010111 aaaae

#8230000
0aaaaa

#8240000
1aaaaa
b10011000 aaaae

#8250000
0aaaaa

#8260000
1aaaaa
b10011001 aaaae

#8270000
0aaaaa

#8280000
1aaaaa
b10011010 aaaae

#8290000
0aaaaa

#8300000
1aaaaa
b10011011 aaaae

#8310000
0aaaaa

#8320000
1aaaaa
b10011100 aaaae

#8330000
0aaaaa

#8340000
1aaaaa
b10011101 aaaae

#8350000
0aaaaa

#8360000
1aaaaa
b10011110 aaaae

#8370000
0aaaaa

#8380000
1aaaaa
b10011111 aaaae

#8390000
0aaaaa

#8400000
1aaaaa
b10100000 aaaae

#8410000
0aaaaa

#8420000
1aaaaa
b10100001 aaaae

#8430000
0aaaaa

#8440000
1aaaaa
b10100010 aaaae

#8450000
0aaaaa

#8460000
1aaaaa
b10100011 aaaae

#8470000
0aaaaa

#8480000
1aaaaa
b10100100 aaaae

#8490000
0aaaaa

#8500000
1aaaaa
b10100101 aaaae

#8510000
0aaaaa

#8520000
1aaaaa
b10100110 aaaae

#8530000
0aaaaa

#8540000
1aaaaa
b10100111 aaaae

#8550000
0aaaaa

#8560000
1aaaaa
b10101000 aaaae

#8570000
0aaaaa

#8580000
1aaaaa
b10101001 aaaae

#8590000
0aaaaa

#8600000
1aaaaa
b10101010 aaaae

#8610000
0aaaaa

#8620000
1aaaaa
b10101011 aaaae

#8630000
0aaaaa

#8640000
1aaaaa
b10101100 aaaae

#8650000
0aaaaa

#8660000
1aaaaa
b10101101 aaaae

#8670000
0aaaaa

#8680000
1aaaaa
b10101110 aaaae

#8690000
0aaaaa

#8700000
1aaaaa
b10101111 aaaae

#8710000
0aaaaa

#8720000
1aaaaa
b10110000 aaaae

#8730000
0aaaaa

#8740000
1aaaaa
b10110001 aaaae

#8750000
0aaaaa

#8760000
1aaaaa
b10110010 aaaae

#8770000
0aaaaa

