MLP/Register.vcd
$date
     Jun 10, 2023       02:24:38
$end

$version
 SystemC 2.3.1-Accellera --- Jun  9 2023 22:37:42
$end

$timescale
     1 ps
$end

$scope module SystemC $end
$var wire    1  aaaaa  Clock       $end
$var wire    1  aaaab  Reset       $end
$var wire    1  aaaac  Load       $end
$var wire    1  aaaad  INIT       $end
$var wire    8  aaaae  INPUT [7:0]  $end
$var wire    8  aaaaf  OUTPUT [7:0]  $end
$upscope $end
$enddefinitions  $end

$comment
All initial values are dumped below at time 0 sec = 0 timescale units.
$end

$dumpvars
xaaaaa
1aaaab
0aaaac
0aaaad
bXXXXXXXX aaaae
b0 aaaaf
$end

#10000
0aaaaa
0aaaab

#20000
1aaaaa
b100100 aaaae

#30000
0aaaaa

#40000
1aaaaa

#50000
0aaaaa

#57000
1aaaac

#60000
1aaaaa
b100100 aaaaf

#67000
0aaaac
b11100100 aaaae

#70000
0aaaaa

#80000
1aaaaa

#90000
0aaaaa

#100000
1aaaaa

#110000
0aaaaa

#120000
1aaaaa

#127000
1aaaac

#130000
0aaaaa

#140000
1aaaaa
b11100100 aaaaf

#147000
0aaaac

