MLP/RegisterFileTest.vcd
$date
     Jun 10, 2023       11:34:07
$end

$version
 SystemC 2.3.1-Accellera --- Jun  9 2023 22:37:42
$end

$timescale
     1 ps
$end

$scope module SystemC $end
$var wire    1  aaaaa  Clock       $end
$var wire    1  aaaab  Reset       $end
$var wire    1  aaaac  ReadEn       $end
$var wire    1  aaaad  Load       $end
$var wire    4  aaaae  Adderss [3:0]  $end
$var wire    8  aaaaf  INPUT_0 [7:0]  $end
$var wire    8  aaaag  INPUT_1 [7:0]  $end
$var wire    8  aaaah  INPUT_2 [7:0]  $end
$var wire    8  aaaai  INPUT_3 [7:0]  $end
$var wire    8  aaaaj  INPUT_4 [7:0]  $end
$var wire    8  aaaak  INPUT_5 [7:0]  $end
$var wire    8  aaaal  INPUT_6 [7:0]  $end
$var wire    8  aaaam  INPUT_7 [7:0]  $end
$var wire    8  aaaan  INPUT_8 [7:0]  $end
$var wire    8  aaaao  INPUT_9 [7:0]  $end
$var wire    8  aaaap  OUTPUT [7:0]  $end
$upscope $end
$enddefinitions  $end

$comment
All initial values are dumped below at time 0 sec = 0 timescale units.
$end

$dumpvars
xaaaaa
1aaaab
0aaaac
0aaaad
bXXXX aaaae
bXXXXXXXX aaaaf
bXXXXXXXX aaaag
bXXXXXXXX aaaah
bXXXXXXXX aaaai
bXXXXXXXX aaaaj
bXXXXXXXX aaaak
bXXXXXXXX aaaal
bXXXXXXXX aaaam
bXXXXXXXX aaaan
bXXXXXXXX aaaao
bXXXXXXXX aaaap
$end

#10000
0aaaaa
0aaaab

#20000
1aaaaa
b100100 aaaaf
b110100 aaaag
b111100 aaaah
b100 aaaai
b11100100 aaaaj
b100111 aaaak
b100000 aaaal
b1110100 aaaam
b10100100 aaaan
b1100100 aaaao

#30000
0aaaaa

#40000
1aaaaa

#50000
0aaaaa

#57000
1aaaad

#60000
1aaaaa

#67000
0aaaad

#70000
0aaaaa

#77000
b0 aaaae

#80000
1aaaaa

#90000
0aaaaa

#100000
1aaaaa

#110000
0aaaaa

#118000
1aaaac
b100100 aaaap

#120000
1aaaaa

#130000
0aaaaa

#140000
1aaaaa

#150000
0aaaaa

#159000
0aaaac

#160000
1aaaaa

#169000
b1 aaaae

#170000
0aaaaa

#180000
1aaaaa

#190000
0aaaaa

#200000
1aaaaa

#210000
0aaaaa
1aaaac
b110100 aaaap

#220000
1aaaaa

#230000
0aaaaa

#240000
1aaaaa

#250000
0aaaaa

#251000
0aaaac

#260000
1aaaaa

#261000
b10 aaaae

#270000
0aaaaa

#280000
1aaaaa

#290000
0aaaaa

#300000
1aaaaa

#302000
1aaaac
b111100 aaaap

#310000
0aaaaa

#320000
1aaaaa

#330000
0aaaaa

#340000
1aaaaa

#343000
0aaaac

#350000
0aaaaa

#353000
b11 aaaae

#360000
1aaaaa

#370000
0aaaaa

#380000
1aaaaa

#390000
0aaaaa

#394000
1aaaac
b100 aaaap

#400000
1aaaaa

#410000
0aaaaa

#420000
1aaaaa

#430000
0aaaaa

#435000
0aaaac

#440000
1aaaaa

#445000
b100 aaaae

#450000
0aaaaa

#460000
1aaaaa

#470000
0aaaaa

#480000
1aaaaa

#486000
1aaaac
b11100100 aaaap

#490000
0aaaaa

#500000
1aaaaa

#510000
0aaaaa

#520000
1aaaaa

#527000
0aaaac

#530000
0aaaaa

#537000
b101 aaaae

#540000
1aaaaa

#550000
0aaaaa

#560000
1aaaaa

#570000
0aaaaa

#578000
1aaaac
b100111 aaaap

#580000
1aaaaa

#590000
0aaaaa

#600000
1aaaaa

#610000
0aaaaa

#619000
0aaaac

#620000
1aaaaa

#629000
b110 aaaae

#630000
0aaaaa

#640000
1aaaaa

#650000
0aaaaa

#660000
1aaaaa

#670000
0aaaaa
1aaaac
b100000 aaaap

#680000
1aaaaa

#690000
0aaaaa

#700000
1aaaaa

#710000
0aaaaa

#711000
0aaaac

#720000
1aaaaa

#721000
b111 aaaae

#730000
0aaaaa

#740000
1aaaaa

#750000
0aaaaa

#760000
1aaaaa

#762000
1aaaac
b1110100 aaaap

#770000
0aaaaa

#780000
1aaaaa

#790000
0aaaaa

#800000
1aaaaa

#803000
0aaaac

#810000
0aaaaa

#813000
b1000 aaaae

#820000
1aaaaa

#830000
0aaaaa

#840000
1aaaaa

#850000
0aaaaa

#854000
1aaaac
b10100100 aaaap

#860000
1aaaaa

#870000
0aaaaa

#880000
1aaaaa

#890000
0aaaaa

#895000
0aaaac

#900000
1aaaaa

#905000
b1001 aaaae

#910000
0aaaaa

#920000
1aaaaa

#930000
0aaaaa

#940000
1aaaaa

#946000
1aaaac
b1100100 aaaap

#950000
0aaaaa

#960000
1aaaaa

#970000
0aaaaa

#980000
1aaaaa

#987000
0aaaac

