MLP/Single Neuron.vcd
$date
     Jun 29, 2023       00:54:55
$end

$version
 SystemC 2.3.1-Accellera --- Jun 12 2023 10:26:45
$end

$timescale
     1 ps
$end

$scope module SystemC $end
$var wire    1  aaaaa  Clock       $end
$var wire    1  aaaab  Reset       $end
$var wire    1  aaaac  Start       $end
$var wire    1  aaaad  Done_OUT       $end
$var wire    8  aaaae  INPUT_0 [7:0]  $end
$var wire    8  aaaaf  INPUT_1 [7:0]  $end
$var wire    8  aaaag  INPUT_2 [7:0]  $end
$var wire    8  aaaah  INPUT_3 [7:0]  $end
$var wire    8  aaaai  INPUT_4 [7:0]  $end
$var wire    8  aaaaj  INPUT_5 [7:0]  $end
$var wire    8  aaaak  INPUT_6 [7:0]  $end
$var wire    8  aaaal  INPUT_7 [7:0]  $end
$var wire    8  aaaam  INPUT_8 [7:0]  $end
$var wire    8  aaaan  INPUT_9 [7:0]  $end
$var wire    8  aaaao  Weight_0 [7:0]  $end
$var wire    8  aaaap  Weight_1 [7:0]  $end
$var wire    8  aaaaq  Weight_2 [7:0]  $end
$var wire    8  aaaar  Weight_3 [7:0]  $end
$var wire    8  aaaas  Weight_4 [7:0]  $end
$var wire    8  aaaat  Weight_5 [7:0]  $end
$var wire    8  aaaau  Weight_6 [7:0]  $end
$var wire    8  aaaav  Weight_7 [7:0]  $end
$var wire    8  aaaaw  Weight_8 [7:0]  $end
$var wire    8  aaaax  Weight_9 [7:0]  $end
$var wire    8  aaaay  Bias [7:0]  $end
$var wire    8  aaaaz  OUTPUT_I [7:0]  $end
$var wire    8  aaaba  OUTPUT_II [7:0]  $end
$upscope $end
$enddefinitions  $end

$comment
All initial values are dumped below at time 0 sec = 0 timescale units.
$end

$dumpvars
xaaaaa
1aaaab
0aaaac
0aaaad
bXXXXXXXX aaaae
bXXXXXXXX aaaaf
bXXXXXXXX aaaag
bXXXXXXXX aaaah
bXXXXXXXX aaaai
bXXXXXXXX aaaaj
bXXXXXXXX aaaak
bXXXXXXXX aaaal
bXXXXXXXX aaaam
bXXXXXXXX aaaan
bXXXXXXXX aaaao
bXXXXXXXX aaaap
bXXXXXXXX aaaaq
bXXXXXXXX aaaar
bXXXXXXXX aaaas
bXXXXXXXX aaaat
bXXXXXXXX aaaau
bXXXXXXXX aaaav
bXXXXXXXX aaaaw
bXXXXXXXX aaaax
bXXXXXXXX aaaay
b0 aaaaz
b0 aaaba
$end

#5000
0aaaaa

#10000
1aaaaa
0aaaab

#15000
0aaaaa

#20000
1aaaaa
1aaaac
b111001 aaaae
b11110 aaaaf
b101010 aaaag
b1100 aaaah
b0 aaaai
b0 aaaaj
b0 aaaak
b0 aaaal
b0 aaaam
b0 aaaan
b11111101 aaaao
b101 aaaap
b100001 aaaaq
b110110 aaaar
b0 aaaas
b0 aaaat
b0 aaaau
b0 aaaav
b0 aaaaw
b0 aaaax
b11110110 aaaay

#25000
0aaaaa

#30000
1aaaaa

#35000
0aaaaa

#40000
1aaaaa

#45000
0aaaaa

#50000
1aaaaa

#55000
0aaaaa

#60000
1aaaaa

#65000
0aaaaa

#70000
1aaaaa
0aaaac

#75000
0aaaaa

#80000
1aaaaa

#85000
0aaaaa

#90000
1aaaaa
b11111111 aaaba

#95000
0aaaaa

#100000
1aaaaa

#105000
0aaaaa

#110000
1aaaaa
b11111101 aaaba

#115000
0aaaaa

#120000
1aaaaa

#125000
0aaaaa

#130000
1aaaaa

#135000
0aaaaa

#140000
1aaaaa
b11111111 aaaba

#145000
0aaaaa

#150000
1aaaaa

#155000
0aaaaa

#160000
1aaaaa

#165000
0aaaaa

#170000
1aaaaa
b10101 aaaaz
b10101 aaaba

#175000
0aaaaa

#180000
1aaaaa

#185000
0aaaaa

#190000
1aaaaa

#195000
0aaaaa

#200000
1aaaaa
1aaaad
b11111 aaaaz
b11111 aaaba

#205000
0aaaaa

#210000
1aaaaa

#215000
0aaaaa

#220000
1aaaaa
0aaaad

